module gitlab.com/tmanf5/tman-toy

go 1.17

require (
	github.com/grpc-ecosystem/grpc-gateway/v2 v2.7.2
	google.golang.org/genproto v0.0.0-20211208223120-3a66f561d7aa
	google.golang.org/grpc v1.43.0
	google.golang.org/protobuf v1.27.1
)

require (
	github.com/golang/protobuf v1.5.2 // indirect
	golang.org/x/net v0.0.0-20210405180319-a5a99cb37ef4 // indirect
	golang.org/x/sys v0.0.0-20210510120138-977fb7262007 // indirect
	golang.org/x/text v0.3.5 // indirect
)
